<svg width="20" height="20" viewBox="0 0 20 20"
     fill="none" xmlns="http://www.w3.org/2000/svg">
<path d="M10.5318 8.33332C9.85681 6.39164 8.04455 5 5.90909 5C3.19682 5 1 7.2375 1 10C1 12.7625 3.19682 15 5.90909 15C8.04455 15 9.85681 13.6083 10.5318 11.6667H14.0909V15H17.3636V11.6667H19V8.33332H10.5318ZM5.90909 11.6666C5.00502 11.6666 4.27272 10.9208 4.27272 9.99996C4.27272 9.0791 5.00502 8.33332 5.90909 8.33332C6.81317 8.33332 7.54547 9.07914 7.54547 10C7.54547 10.9209 6.81317 11.6666 5.90909 11.6666Z" fill="#00236D"/>
</svg>
