<svg width="120" height="120" viewBox="0 0 120 120" fill="none" xmlns="http://www.w3.org/2000/svg">
<circle cx="60" cy="60" r="60" fill="#00236D"/>
<path d="M89.1666 57.3172V60.0006C89.163 66.2901 87.1264 72.41 83.3605 77.4476C79.5946 82.4851 74.3012 86.1703 68.2697 87.9536C62.2383 89.7369 55.7919 89.5228 49.8921 87.3431C43.9923 85.1634 38.9552 81.135 35.5319 75.8587C32.1086 70.5823 30.4826 64.3407 30.8965 58.0648C31.3103 51.7889 33.7418 45.8148 37.8282 41.0337C41.9147 36.2525 47.4372 32.9204 53.5721 31.5343C59.7071 30.1482 66.1257 30.7824 71.8708 33.3422" stroke="white" stroke-width="1.5" stroke-linecap="round" stroke-linejoin="round"/>
<path d="M89.1667 36.6671L60 65.8629L51.25 57.1129" stroke="#43F4EE" stroke-width="3" stroke-linecap="round" stroke-linejoin="round"/>
</svg>
