<svg width="185" height="60" viewBox="0 0 185 60" fill="none" xmlns="http://www.w3.org/2000/svg">
<g clip-path="url(#clip0)">
<path d="M88.6493 47.6545H38.514C35.0812 47.6545 40.1718 50.4422 40.1718 53.8815C40.1718 57.3207 42.954 60.1084 46.3868 60.1084H88.6493C92.0821 60.1084 94.8643 57.3207 94.8643 53.8815C94.8643 50.4432 92.0821 47.6545 88.6493 47.6545ZM87.9586 59.4166H46.3868C42.954 59.4166 40.9611 57.3197 40.8624 53.8815C40.7761 50.8745 38.1696 48.3463 38.1696 48.3463H87.9597C91.3925 48.3463 94.1747 50.4422 94.1747 53.8815C94.1747 57.3207 91.3914 59.4166 87.9586 59.4166Z" fill="#43F4EE"/>
<path fill-rule="evenodd" clip-rule="evenodd" d="M48.6015 55.0354C48.5686 54.9891 48.5419 54.951 48.5192 54.9222L47.7762 54.0286V53.9524L47.8203 53.9339C47.8522 53.9216 47.8923 53.901 47.9406 53.8701C47.9889 53.8392 48.0423 53.8032 48.0989 53.761C48.1554 53.7188 48.214 53.6632 48.2715 53.5952C48.3301 53.5273 48.3836 53.4532 48.4319 53.3729C48.4802 53.2926 48.5203 53.1958 48.5501 53.0805C48.5809 52.9663 48.5953 52.8458 48.5953 52.7192C48.5953 52.1942 48.4103 51.7824 48.0413 51.4839C47.6723 51.1864 47.1101 51.0371 46.3547 51.0371H44.7884C44.5314 51.0371 44.33 51.1051 44.1861 51.2399C44.0412 51.3748 43.9692 51.557 43.9692 51.7855V55.5985C43.9692 55.825 44.0412 56.0051 44.1861 56.14C44.331 56.2748 44.5314 56.3428 44.7884 56.3428C45.0453 56.3428 45.2468 56.2748 45.3927 56.14C45.5387 56.0051 45.6116 55.8239 45.6116 55.5985V54.4023H46.0598L47.251 55.9711L47.2838 56.0072C47.3054 56.0339 47.3383 56.0658 47.3825 56.1019C47.4267 56.1379 47.474 56.175 47.5264 56.211C47.5788 56.247 47.6405 56.2789 47.7124 56.3036C47.7844 56.3294 47.8553 56.3417 47.9252 56.3417C48.216 56.3417 48.438 56.2758 48.5902 56.143C48.7423 56.0103 48.8173 55.8291 48.8173 55.5975C48.8173 55.51 48.7896 55.406 48.7341 55.2855C48.6775 55.1651 48.6333 55.0817 48.6015 55.0354ZM46.7401 53.0126C46.6466 53.0919 46.5181 53.131 46.3558 53.131H45.6127V52.3105H46.3558C46.5181 52.3105 46.6466 52.3496 46.7401 52.4269C46.8337 52.5051 46.8799 52.6019 46.8799 52.7192C46.8799 52.8366 46.8337 52.9333 46.7401 53.0126ZM53.1443 54.7729H51.0579V54.3282H52.4742C52.6951 54.3282 52.875 54.2633 53.0127 54.1326C53.1515 54.0029 53.2203 53.8423 53.2203 53.6529C53.2203 53.4635 53.1515 53.3039 53.0127 53.1752C52.874 53.0466 52.6951 52.9817 52.4742 52.9817H51.0579V52.5329H53.0713C53.3282 52.5329 53.5297 52.4649 53.6736 52.3301C53.8175 52.1952 53.8904 52.013 53.8904 51.7845C53.8904 51.556 53.8185 51.3738 53.6736 51.2389C53.5287 51.104 53.3282 51.0361 53.0713 51.0361H50.2346C49.9777 51.0361 49.7762 51.104 49.6323 51.2389C49.4874 51.3738 49.4155 51.556 49.4155 51.7845V55.5203C49.4155 55.7488 49.4874 55.931 49.6323 56.0658C49.7773 56.2007 49.9777 56.2686 50.2346 56.2686H53.1443C53.4012 56.2686 53.6027 56.2007 53.7466 56.0658C53.8915 55.931 53.9634 55.7488 53.9634 55.5203C53.9634 55.2917 53.8915 55.1095 53.7466 54.9747C53.6027 54.8398 53.4012 54.7729 53.1443 54.7729ZM58.3027 53.656C58.1732 53.5489 58.0252 53.4532 57.8608 53.3677C57.6953 53.2823 57.5267 53.2154 57.3541 53.1649C57.1814 53.1155 57.0129 53.0671 56.8474 53.0208C56.6819 52.9745 56.5349 52.9344 56.4054 52.8983C56.2759 52.8633 56.1711 52.8201 56.092 52.7707C56.0128 52.7213 55.9738 52.6657 55.9738 52.6049C55.9738 52.5226 56.018 52.4526 56.1053 52.3949C56.1927 52.3383 56.3242 52.3095 56.499 52.3095C56.6007 52.3095 56.6953 52.327 56.7816 52.362C56.8679 52.397 56.9419 52.4402 57.0057 52.4917C57.0684 52.5432 57.1321 52.5946 57.1968 52.6471C57.2616 52.6996 57.3387 52.7429 57.4301 52.7789C57.5216 52.8139 57.6213 52.8314 57.7302 52.8314C58.0047 52.8314 58.2092 52.7727 58.3459 52.6544C58.4816 52.536 58.5494 52.3713 58.5494 52.1602C58.5494 52.0264 58.5021 51.8864 58.4096 51.7402C58.3161 51.5941 58.1856 51.4571 58.018 51.3285C57.8505 51.1998 57.6336 51.0938 57.3664 51.0114C57.0992 50.929 56.8104 50.8868 56.5 50.8868C56.1362 50.8868 55.8103 50.9311 55.5226 51.0186C55.2348 51.1061 55.0005 51.2276 54.8175 51.383C54.6356 51.5385 54.4968 51.7196 54.4023 51.9266C54.3077 52.1335 54.2604 52.3599 54.2604 52.6049C54.2604 52.7974 54.2923 52.9724 54.355 53.132C54.4177 53.2916 54.503 53.4254 54.6099 53.5335C54.7168 53.6416 54.8391 53.7394 54.9758 53.8258C55.1125 53.9123 55.2584 53.9833 55.4105 54.0389C55.5637 54.0945 55.7168 54.1439 55.8689 54.1872C56.0221 54.2294 56.167 54.2674 56.3037 54.3004C56.4404 54.3333 56.5627 54.3652 56.6696 54.3951C56.7765 54.426 56.8618 54.4599 56.9245 54.497C56.9872 54.5351 57.019 54.5763 57.019 54.6226C57.019 54.7297 56.9594 54.8192 56.8402 54.8913C56.721 54.9633 56.5318 54.9994 56.2718 54.9994C56.1557 54.9994 56.0488 54.9808 55.9532 54.9448C55.8576 54.9088 55.7754 54.8645 55.7076 54.813C55.6397 54.7616 55.5719 54.7111 55.5051 54.6597C55.4383 54.6082 55.3591 54.565 55.2687 54.5279C55.1772 54.4919 55.0775 54.4733 54.9686 54.4733C54.6942 54.4733 54.4886 54.533 54.3529 54.6525C54.2173 54.7719 54.1494 54.9366 54.1494 55.1486C54.1494 55.2825 54.1967 55.4225 54.2913 55.5686C54.3858 55.7148 54.5184 55.8517 54.6901 55.9794C54.8617 56.107 55.0858 56.212 55.3643 56.2954C55.6418 56.3778 55.945 56.42 56.2728 56.42C56.6706 56.42 57.0293 56.3726 57.3469 56.2779C57.6645 56.1832 57.9235 56.0525 58.1229 55.8857C58.3223 55.7189 58.4733 55.5285 58.5782 55.3144C58.683 55.1002 58.7344 54.8707 58.7344 54.6247C58.7344 54.4208 58.6953 54.2345 58.6162 54.0688C58.5371 53.8999 58.4322 53.763 58.3027 53.656ZM62.9596 51.1843C62.5773 50.9857 62.1374 50.8868 61.6399 50.8868C61.1425 50.8868 60.7026 50.9857 60.3203 51.1843C59.9379 51.383 59.646 51.6507 59.4446 51.9883C59.2431 52.326 59.1424 52.7069 59.1424 53.1299V54.1769C59.1424 54.4929 59.201 54.7883 59.3192 55.0611C59.4374 55.335 59.6029 55.5717 59.8166 55.7725C60.0304 55.9732 60.2946 56.1307 60.6091 56.245C60.9236 56.3592 61.2679 56.4169 61.642 56.4169C62.0161 56.4169 62.3604 56.3592 62.6739 56.245C62.9884 56.1307 63.2525 55.9732 63.4663 55.7725C63.6801 55.5717 63.8456 55.335 63.9638 55.0611C64.082 54.7873 64.1405 54.4929 64.1405 54.1769V53.1299C64.1405 52.7069 64.0398 52.326 63.8384 51.9883C63.6349 51.6507 63.342 51.383 62.9596 51.1843ZM62.4591 54.1779C62.4591 54.4702 62.3799 54.705 62.2227 54.882C62.0644 55.0591 61.8702 55.1486 61.6399 55.1486C61.4097 55.1486 61.2155 55.0601 61.0572 54.882C60.8989 54.705 60.8208 54.4702 60.8208 54.1779V53.131C60.8208 52.8386 60.8999 52.6039 61.0572 52.4269C61.2155 52.2498 61.4087 52.1602 61.6399 52.1602C61.8702 52.1602 62.0644 52.2488 62.2227 52.4269C62.381 52.6039 62.4591 52.8386 62.4591 53.131V54.1779ZM68.8755 50.964C68.6186 50.964 68.4172 51.032 68.2712 51.1679C68.1253 51.3038 68.0523 51.4849 68.0523 51.7114V54.251C68.0523 54.5083 67.9845 54.7101 67.8498 54.8552C67.7152 55.0004 67.5333 55.0725 67.3051 55.0725C67.079 55.0725 66.8991 55.0004 66.7645 54.8552C66.6298 54.7101 66.562 54.5094 66.562 54.251V51.7114C66.562 51.4849 66.489 51.3038 66.3431 51.1679C66.1971 51.032 65.9957 50.964 65.7388 50.964C65.4818 50.964 65.2804 51.032 65.1365 51.1668C64.9915 51.3017 64.9196 51.4839 64.9196 51.7124V54.252C64.9196 54.8964 65.1334 55.4194 65.5609 55.8188C65.9885 56.2192 66.5692 56.4189 67.3051 56.4189C68.041 56.4189 68.6227 56.2192 69.0513 55.8188C69.4799 55.4183 69.6937 54.8964 69.6937 54.252V51.7124C69.6937 51.4839 69.6217 51.3017 69.4768 51.1668C69.3339 51.031 69.1335 50.964 68.8755 50.964ZM75.291 55.0354C75.2581 54.9891 75.2314 54.951 75.2088 54.9222L74.4657 54.0286V53.9524L74.5099 53.9339C74.5417 53.9216 74.5818 53.901 74.6301 53.8701C74.6784 53.8392 74.7319 53.8032 74.7884 53.761C74.8449 53.7188 74.9035 53.6632 74.9611 53.5952C75.0196 53.5273 75.0731 53.4532 75.1214 53.3729C75.1697 53.2926 75.2098 53.1958 75.2396 53.0805C75.2704 52.9663 75.2848 52.8458 75.2848 52.7192C75.2848 52.1942 75.0998 51.7824 74.7308 51.4839C74.3619 51.1864 73.7997 51.0371 73.0442 51.0371H71.48C71.223 51.0371 71.0216 51.1051 70.8777 51.2399C70.7328 51.3748 70.6608 51.557 70.6608 51.7855V55.5985C70.6608 55.825 70.7328 56.0051 70.8777 56.14C71.0226 56.2748 71.223 56.3428 71.48 56.3428C71.7369 56.3428 71.9383 56.2748 72.0843 56.14C72.2302 56.0051 72.3032 55.8239 72.3032 55.5985V54.4023H72.7513L73.9425 55.9711L73.9754 56.0072C73.997 56.0339 74.0299 56.0658 74.0741 56.1019C74.1183 56.1379 74.1656 56.175 74.218 56.211C74.2704 56.247 74.3321 56.2789 74.404 56.3036C74.4759 56.3294 74.5469 56.3417 74.6167 56.3417C74.9076 56.3417 75.1296 56.2758 75.2817 56.143C75.4338 56.0103 75.5089 55.8291 75.5089 55.5975C75.5089 55.51 75.4811 55.406 75.4246 55.2855C75.3681 55.1651 75.3239 55.0817 75.291 55.0354ZM73.4297 53.0126C73.3361 53.0919 73.2077 53.131 73.0453 53.131H72.3022V52.3105H73.0453C73.2077 52.3105 73.3361 52.3496 73.4297 52.4269C73.5232 52.5051 73.5694 52.6019 73.5694 52.7192C73.5694 52.8366 73.5232 52.9333 73.4297 53.0126ZM80.3384 54.6525C80.2017 54.533 79.9952 54.4733 79.7207 54.4733C79.6118 54.4733 79.5111 54.4919 79.4206 54.5279C79.3291 54.5639 79.251 54.6082 79.1842 54.6597C79.1174 54.7111 79.0496 54.7616 78.9818 54.813C78.9139 54.8645 78.8317 54.9077 78.7361 54.9448C78.6405 54.9808 78.5336 54.9994 78.4175 54.9994C78.1749 54.9994 77.9776 54.9232 77.8255 54.7708C77.6734 54.6185 77.5984 54.4208 77.5984 54.1779V53.131C77.5984 52.888 77.6744 52.6904 77.8255 52.538C77.9776 52.3857 78.1749 52.3095 78.4175 52.3095C78.5193 52.3095 78.6138 52.327 78.7001 52.362C78.7865 52.397 78.8605 52.4402 78.9242 52.4917C78.9869 52.5432 79.0506 52.5946 79.1154 52.6471C79.1801 52.6996 79.2572 52.7429 79.3487 52.7789C79.4401 52.8139 79.5398 52.8314 79.6488 52.8314C79.9232 52.8314 80.1277 52.7727 80.2644 52.6544C80.4001 52.536 80.4679 52.3713 80.4679 52.1602C80.4679 52.0264 80.4207 51.8864 80.3282 51.7402C80.2346 51.5941 80.1041 51.4571 79.9366 51.3285C79.769 51.1998 79.5522 51.0938 79.285 51.0114C79.0177 50.929 78.7289 50.8868 78.4185 50.8868C77.9211 50.8868 77.4812 50.9857 77.0989 51.1843C76.7165 51.383 76.4246 51.6507 76.2232 51.9883C76.0217 52.326 75.921 52.7069 75.921 53.1299V54.1769C75.921 54.4929 75.9796 54.7883 76.0978 55.0611C76.216 55.335 76.3815 55.5717 76.5952 55.7725C76.809 55.9732 77.0732 56.1307 77.3877 56.245C77.7022 56.3592 78.0465 56.4169 78.4206 56.4169C78.7484 56.4169 79.0516 56.3757 79.3312 56.2923C79.6108 56.21 79.8358 56.1039 80.0065 55.9763C80.1781 55.8486 80.3107 55.7117 80.4052 55.5655C80.4998 55.4194 80.5471 55.2794 80.5471 55.1455C80.544 54.9366 80.4751 54.7719 80.3384 54.6525ZM84.8299 54.7729H82.7434V54.3282H84.1597C84.3807 54.3282 84.5606 54.2633 84.6983 54.1326C84.837 54.0029 84.9059 53.8423 84.9059 53.6529C84.9059 53.4635 84.837 53.3039 84.6983 53.1752C84.5595 53.0466 84.3807 52.9817 84.1597 52.9817H82.7434V52.5329H84.7569C85.0138 52.5329 85.2153 52.4649 85.3592 52.3301C85.503 52.1952 85.576 52.013 85.576 51.7845C85.576 51.556 85.5041 51.3738 85.3592 51.2389C85.2142 51.104 85.0138 51.0361 84.7569 51.0361H81.9202C81.6632 51.0361 81.4618 51.104 81.3179 51.2389C81.173 51.3738 81.101 51.556 81.101 51.7845V55.5203C81.101 55.7488 81.173 55.931 81.3179 56.0658C81.4628 56.2007 81.6632 56.2686 81.9202 56.2686H84.8299C85.0868 56.2686 85.2882 56.2007 85.4321 56.0658C85.577 55.931 85.649 55.7488 85.649 55.5203C85.649 55.2917 85.577 55.1095 85.4321 54.9747C85.2882 54.8398 85.0878 54.7729 84.8299 54.7729ZM90.3018 54.0667C90.2226 53.8999 90.1188 53.763 89.9883 53.656C89.8588 53.5489 89.7108 53.4532 89.5464 53.3677C89.3809 53.2823 89.2123 53.2154 89.0397 53.1649C88.867 53.1155 88.6984 53.0671 88.534 53.0208C88.3685 52.9745 88.2215 52.9344 88.092 52.8983C87.9625 52.8633 87.8577 52.8201 87.7786 52.7707C87.6994 52.7213 87.6604 52.6657 87.6604 52.6049C87.6604 52.5226 87.7046 52.4526 87.7919 52.3949C87.8793 52.3383 88.0108 52.3095 88.1856 52.3095C88.2873 52.3095 88.3819 52.327 88.4682 52.362C88.5545 52.397 88.6285 52.4402 88.6923 52.4917C88.755 52.5432 88.8187 52.5946 88.8834 52.6471C88.9482 52.6996 89.0253 52.7429 89.1167 52.7789C89.2082 52.8139 89.3079 52.8314 89.4169 52.8314C89.6913 52.8314 89.8958 52.7727 90.0325 52.6544C90.1682 52.536 90.236 52.3713 90.236 52.1602C90.236 52.0264 90.1887 51.8864 90.0962 51.7402C90.0027 51.5941 89.8722 51.4571 89.7046 51.3285C89.5371 51.1998 89.3202 51.0938 89.053 51.0114C88.7858 50.929 88.497 50.8868 88.1866 50.8868C87.8228 50.8868 87.4969 50.9311 87.2092 51.0186C86.9214 51.1061 86.6871 51.2276 86.5041 51.383C86.3222 51.5385 86.1834 51.7196 86.0889 51.9266C85.9943 52.1335 85.9471 52.3599 85.9471 52.6049C85.9471 52.7974 85.9789 52.9724 86.0416 53.132C86.1043 53.2916 86.1896 53.4254 86.2965 53.5335C86.4034 53.6416 86.5257 53.7394 86.6624 53.8258C86.7991 53.9123 86.945 53.9833 87.0971 54.0389C87.2503 54.0945 87.4034 54.1439 87.5555 54.1872C87.7087 54.2294 87.8536 54.2674 87.9903 54.3004C88.127 54.3333 88.2493 54.3652 88.3562 54.3951C88.4631 54.426 88.5484 54.4599 88.6111 54.497C88.6738 54.5351 88.7056 54.5763 88.7056 54.6226C88.7056 54.7297 88.646 54.8192 88.5268 54.8913C88.4076 54.9633 88.2185 54.9994 87.9584 54.9994C87.8423 54.9994 87.7354 54.9808 87.6398 54.9448C87.5442 54.9088 87.462 54.8645 87.3942 54.813C87.3263 54.7616 87.2585 54.7111 87.1917 54.6597C87.1249 54.6082 87.0458 54.565 86.9553 54.5279C86.8638 54.4919 86.7641 54.4733 86.6552 54.4733C86.3808 54.4733 86.1752 54.533 86.0396 54.6525C85.9039 54.7719 85.8361 54.9366 85.8361 55.1486C85.8361 55.2825 85.8833 55.4225 85.9779 55.5686C86.0724 55.7148 86.205 55.8517 86.3767 55.9794C86.5483 56.107 86.7724 56.212 87.0509 56.2954C87.3284 56.3778 87.6316 56.42 87.9595 56.42C88.3572 56.42 88.7159 56.3726 89.0335 56.2779C89.3511 56.1832 89.6101 56.0525 89.8095 55.8857C90.0089 55.7189 90.1599 55.5285 90.2648 55.3144C90.3696 55.1002 90.421 54.8707 90.421 54.6247C90.42 54.4188 90.3809 54.2335 90.3018 54.0667Z" fill="#00236D"/>
<path fill-rule="evenodd" clip-rule="evenodd" d="M57.2093 18.7607C56.5721 18.1596 55.6913 17.859 54.5669 17.859H40.221C39.0956 17.859 38.2179 18.1565 37.5858 18.7525C36.9537 19.3485 36.6382 20.1505 36.6382 21.1593C36.6382 22.1681 36.9537 22.97 37.5858 23.5661C38.2169 24.1621 39.0956 24.4596 40.221 24.4596H43.8193V37.981C43.8193 38.9785 44.1348 39.7753 44.7669 40.3713C45.398 40.9674 46.2767 41.2649 47.4022 41.2649C48.5266 41.2649 49.4053 40.9674 50.0374 40.3713C50.6685 39.7753 50.985 38.9785 50.985 37.981V24.4586H54.5669C55.6913 24.4586 56.5731 24.158 57.2093 23.5568C57.8465 22.9556 58.1641 22.1568 58.1641 21.1583C58.1641 20.1597 57.8455 19.3619 57.2093 18.7607ZM75.9294 18.5116C74.2582 17.6376 72.3342 17.2001 70.1584 17.2001C67.9825 17.2001 66.0585 17.6376 64.3873 18.5116C62.7162 19.3866 61.4397 20.5694 60.5588 22.0611C59.678 23.5527 59.2371 25.2317 59.2371 27.099V31.7191C59.2371 33.1139 59.4941 34.4151 60.009 35.6226C60.5239 36.8301 61.2485 37.876 62.1817 38.7613C63.116 39.6466 64.2702 40.3415 65.6443 40.8459C67.0185 41.3503 68.5232 41.6025 70.1584 41.6025C71.7925 41.6025 73.2972 41.3503 74.6714 40.8459C76.0455 40.3415 77.1997 39.6466 78.134 38.7613C79.0682 37.876 79.7918 36.8301 80.3067 35.6226C80.8216 34.4151 81.0786 33.1139 81.0786 31.7191V27.099C81.0786 25.2317 80.6376 23.5527 79.7568 22.0611C78.8771 20.5694 77.6005 19.3856 75.9294 18.5116ZM73.7402 31.718C73.7402 33.0058 73.3949 34.0414 72.7052 34.8248C72.0156 35.6082 71.1666 35.9994 70.1584 35.9994C69.1501 35.9994 68.3012 35.6082 67.6115 34.8248C66.9219 34.0414 66.5765 33.0058 66.5765 31.718V27.098C66.5765 25.8102 66.9208 24.7746 67.6115 23.9912C68.3012 23.2078 69.1501 22.8167 70.1584 22.8167C71.1666 22.8167 72.0156 23.2089 72.7052 23.9912C73.3949 24.7746 73.7402 25.8102 73.7402 27.098V31.718ZM104.21 18.4303C103.578 17.8343 102.7 17.5368 101.575 17.5368C100.449 17.5368 99.5684 17.8374 98.9322 18.4385C98.295 19.0397 97.9774 19.8385 97.9774 20.8371V32.0403C97.9774 33.1778 97.6824 34.0661 97.0935 34.7044C96.5046 35.3426 95.7111 35.6617 94.7132 35.6617C93.7265 35.6617 92.9382 35.3426 92.3493 34.7044C91.7603 34.0661 91.4654 33.1778 91.4654 32.0403V20.8371C91.4654 19.8396 91.1468 19.0397 90.5106 18.4385C89.8733 17.8374 88.9925 17.5368 87.8681 17.5368C86.7427 17.5368 85.865 17.8343 85.2329 18.4303C84.6008 19.0263 84.2853 19.8282 84.2853 20.8371V32.0403C84.2853 34.8845 85.2195 37.1884 87.087 38.9538C88.9545 40.7193 91.4972 41.6015 94.7132 41.6015C97.9291 41.6015 100.474 40.7193 102.348 38.9538C104.221 37.1884 105.158 34.8845 105.158 32.0403V20.8371C105.156 19.8282 104.841 19.0263 104.21 18.4303ZM128.967 35.5012C128.824 35.2973 128.704 35.1306 128.608 35.0019L125.361 31.0582V30.7205L125.552 30.6402C125.69 30.5867 125.864 30.493 126.077 30.3582C126.289 30.2244 126.52 30.0627 126.77 29.8754C127.02 29.688 127.271 29.4441 127.526 29.1435C127.781 28.8429 128.014 28.5155 128.227 28.1614C128.439 27.8073 128.612 27.378 128.744 26.8736C128.877 26.3692 128.944 25.838 128.944 25.2801C128.944 22.9618 128.137 21.1459 126.524 19.8313C124.911 18.5168 122.454 17.86 119.153 17.86H112.307C111.181 17.86 110.304 18.1575 109.672 18.7535C109.039 19.3496 108.724 20.1515 108.724 21.1603V37.981C108.724 38.9785 109.039 39.7753 109.672 40.3713C110.303 40.9674 111.181 41.2649 112.307 41.2649C113.431 41.2649 114.313 40.9674 114.949 40.3713C115.586 39.7753 115.904 38.9785 115.904 37.981V32.7011H117.862L123.068 39.623L123.211 39.7835C123.306 39.9019 123.449 40.0409 123.64 40.2025C123.831 40.3631 124.041 40.5247 124.269 40.6853C124.497 40.8459 124.768 40.9828 125.081 41.0961C125.394 41.2083 125.705 41.2649 126.012 41.2649C127.286 41.2649 128.254 40.9725 128.918 40.3878C129.581 39.8031 129.913 39.0012 129.913 37.981C129.913 37.595 129.79 37.1359 129.547 36.6047C129.303 36.0725 129.11 35.705 128.967 35.5012ZM120.831 26.5761C120.422 26.9251 119.863 27.099 119.152 27.099H115.904V23.4775H119.152C119.863 23.4775 120.423 23.6495 120.831 23.9923C121.239 24.3361 121.444 24.7653 121.444 25.2801C121.445 25.7948 121.24 26.2271 120.831 26.5761ZM138.968 18.4385C138.33 17.8374 137.449 17.5368 136.325 17.5368C135.2 17.5368 134.322 17.8343 133.69 18.4303C133.058 19.0263 132.742 19.8282 132.742 20.8371V37.98C132.742 38.9775 133.058 39.7743 133.69 40.3703C134.321 40.9663 135.2 41.2638 136.325 41.2638C137.451 41.2638 138.331 40.9663 138.968 40.3703C139.605 39.7743 139.922 38.9775 139.922 37.98V20.8371C139.922 19.8396 139.605 19.0397 138.968 18.4385ZM160.892 29.4163C160.324 28.9438 159.679 28.5207 158.958 28.1449C158.236 27.7692 157.498 27.4717 156.745 27.2514C155.992 27.0311 155.254 26.819 154.532 26.6152C153.811 26.4114 153.165 26.2312 152.598 26.0758C152.03 25.9204 151.573 25.733 151.229 25.5127C150.884 25.2924 150.712 25.0484 150.712 24.7808C150.712 24.4164 150.903 24.1075 151.286 23.8553C151.668 23.6031 152.24 23.4775 153.005 23.4775C153.451 23.4775 153.862 23.5558 154.238 23.7112C154.615 23.8667 154.941 24.0571 155.218 24.2825C155.493 24.508 155.772 24.7365 156.053 24.9671C156.335 25.1977 156.674 25.3912 157.072 25.5467C157.47 25.7021 157.908 25.7804 158.385 25.7804C159.585 25.7804 160.481 25.5199 161.076 25.0001C161.67 24.4792 161.967 23.7524 161.967 22.8187C161.967 22.2289 161.763 21.6112 161.355 20.9678C160.946 20.3244 160.375 19.7181 159.643 19.1488C158.911 18.5806 157.961 18.1132 156.793 17.7488C155.626 17.3844 154.363 17.2012 153.004 17.2012C151.412 17.2012 149.987 17.3947 148.729 17.7807C147.471 18.1668 146.445 18.7041 145.649 19.3907C144.854 20.0774 144.248 20.8772 143.834 21.7893C143.42 22.7014 143.213 23.6999 143.213 24.7828C143.213 25.6311 143.351 26.4062 143.628 27.1083C143.903 27.8114 144.275 28.4013 144.742 28.8789C145.208 29.3566 145.742 29.7858 146.342 30.1667C146.941 30.5476 147.575 30.8616 148.244 31.1086C148.913 31.3557 149.581 31.5729 150.251 31.7602C150.92 31.9486 151.554 32.1144 152.153 32.2595C152.752 32.4047 153.286 32.5436 153.753 32.6785C154.22 32.8123 154.592 32.9626 154.867 33.1294C155.143 33.2961 155.282 33.4814 155.282 33.6842C155.282 34.1567 155.022 34.551 154.501 34.867C153.981 35.1841 153.153 35.3416 152.018 35.3416C151.509 35.3416 151.044 35.2613 150.626 35.0997C150.206 34.9391 149.848 34.7456 149.551 34.5201C149.254 34.2947 148.959 34.0692 148.667 33.8438C148.375 33.6183 148.03 33.4248 147.632 33.2642C147.234 33.1036 146.796 33.0223 146.318 33.0223C145.119 33.0223 144.222 33.2858 143.628 33.8109C143.033 34.3369 142.736 35.0667 142.736 36.0004C142.736 36.5903 142.943 37.2079 143.357 37.8513C143.771 38.4947 144.352 39.099 145.1 39.6621C145.849 40.2252 146.83 40.6894 148.046 41.0549C149.261 41.4193 150.586 41.6025 152.018 41.6025C153.759 41.6025 155.325 41.3936 156.715 40.9746C158.106 40.5556 159.236 39.9791 160.106 39.2441C160.977 38.5091 161.639 37.6691 162.096 36.7251C162.552 35.7812 162.78 34.7672 162.78 33.6832C162.78 32.7814 162.608 31.9641 162.263 31.228C161.917 30.493 161.461 29.8888 160.892 29.4163ZM184.044 18.7607C183.407 18.1596 182.526 17.859 181.402 17.859H167.057C165.931 17.859 165.054 18.1565 164.422 18.7525C163.159 19.9435 163.159 22.374 164.422 23.565C165.053 24.1611 165.931 24.4586 167.057 24.4586H170.655V37.98C170.655 38.9775 170.971 39.7743 171.603 40.3703C172.234 40.9663 173.113 41.2638 174.238 41.2638C175.362 41.2638 176.241 40.9663 176.873 40.3703C177.504 39.7743 177.821 38.9775 177.821 37.98V24.4586H181.403C182.527 24.4586 183.409 24.158 184.045 23.5568C184.682 22.9556 185 22.1568 185 21.1583C185 20.1597 184.68 19.3619 184.044 18.7607Z" fill="#00236D"/>
<path d="M13.3723 51.2276C13.1945 50.5636 12.5131 50.1694 11.8502 50.3474C11.1873 50.5255 10.7936 51.208 10.9714 51.873C11.1492 52.537 11.8306 52.9313 12.4936 52.7532C13.1565 52.5751 13.5501 51.8916 13.3723 51.2276Z" fill="#F4438A"/>
<path d="M28.5813 47.145C28.4035 46.481 27.7221 46.0868 27.0592 46.2649C26.3962 46.443 26.0026 47.1255 26.1804 47.7905C26.3582 48.4545 27.0396 48.8487 27.7026 48.6706C28.3655 48.4925 28.7591 47.81 28.5813 47.145Z" fill="#FFDA2D"/>
<path d="M30.3317 37.6506L25.828 20.8103C24.94 17.4884 21.5319 15.517 18.2162 16.4075L4.60834 20.0599C1.29271 20.9503 -0.675498 24.3639 0.213536 27.6858L4.71729 44.5261C5.6053 47.848 9.01343 49.8193 12.3291 48.9289L25.9369 45.2755C29.2526 44.3861 31.2197 40.9725 30.3317 37.6506Z" fill="#FFDA2D"/>
<path d="M30.3576 37.7742L25.896 21.0914C25.1765 18.6012 23.0336 16.9006 20.5957 16.6371C20.5412 16.6494 20.4857 16.6577 20.4312 16.6721L2.82117 21.3992C2.76669 21.4136 2.71531 21.4332 2.66289 21.4496C1.84683 22.0467 1.19624 22.829 0.756348 23.7216C7.65895 37.5858 18.3757 45.1541 27.9279 42.5908C28.6402 42.3993 29.3236 42.143 29.9865 41.8383C30.5457 40.6061 30.705 39.1845 30.3576 37.7742Z" fill="#F4438A"/>
<path d="M25.8271 20.8103C24.939 17.4884 21.5309 15.517 18.2153 16.4075L4.60741 20.0599C2.90643 20.5169 1.56414 21.64 0.776855 23.073C0.875523 23.2737 0.971107 23.4775 1.07183 23.6741C4.58069 27.554 11.141 29.2083 17.8227 27.4151C21.2205 26.503 24.1425 24.8312 26.343 22.7384L25.8271 20.8103Z" fill="#43F4EE"/>
<path d="M19.838 11.245C19.542 10.1374 18.4063 9.48058 17.3015 9.77705L2.0923 13.8597C0.987428 14.1562 0.331701 15.2947 0.627703 16.4014C0.923705 17.509 2.05941 18.1658 3.1653 17.8693L8.76879 16.3653L12.7371 31.2013C13.0331 32.309 14.1688 32.9657 15.2747 32.6693C16.3795 32.3728 17.0353 31.2343 16.7393 30.1276L12.77 15.2906L18.3734 13.7866C19.4783 13.4902 20.134 12.3516 19.838 11.245Z" fill="#F4438A"/>
</g>
<defs>
<clipPath id="clip0">
<rect width="185" height="60" fill="white"/>
</clipPath>
</defs>
</svg>
